%YAML 1.1
%TAG !u! tag:unity3d.com,2011:
--- !u!1 &2216731859638370782
GameObject:
  m_ObjectHideFlags: 0
  m_CorrespondingSourceObject: {fileID: 0}
  m_PrefabInstance: {fileID: 0}
  m_PrefabAsset: {fileID: 0}
  serializedVersion: 6
  m_Component:
  - component: {fileID: 2216731859638370783}
  m_Layer: 0
  m_Name: 1
  m_TagString: Untagged
  m_Icon: {fileID: 0}
  m_NavMeshLayer: 0
  m_StaticEditorFlags: 0
  m_IsActive: 1
--- !u!4 &2216731859638370783
Transform:
  m_ObjectHideFlags: 0
  m_CorrespondingSourceObject: {fileID: 0}
  m_PrefabInstance: {fileID: 0}
  m_PrefabAsset: {fileID: 0}
  m_GameObject: {fileID: 2216731859638370782}
  m_LocalRotation: {x: -0, y: -0, z: -0, w: 1}
  m_LocalPosition: {x: 0, y: 0, z: 0}
  m_LocalScale: {x: 1, y: 1, z: 1}
  m_Children:
  - {fileID: 2216731860188899884}
  m_Father: {fileID: 0}
  m_RootOrder: 0
  m_LocalEulerAnglesHint: {x: 0, y: 0, z: 0}
--- !u!1001 &3619301304228009941
PrefabInstance:
  m_ObjectHideFlags: 0
  serializedVersion: 2
  m_Modification:
    m_TransformParent: {fileID: 2216731859638370783}
    m_Modifications:
    - target: {fileID: 3240690392320441826, guid: 7ce6c18a915b05049b7370f4d0594f81,
        type: 3}
      propertyPath: m_Name
      value: Path
      objectReference: {fileID: 0}
    - target: {fileID: 3240690392320441848, guid: 7ce6c18a915b05049b7370f4d0594f81,
        type: 3}
      propertyPath: m_Positions.Array.data[0].x
      value: 5.293165
      objectReference: {fileID: 0}
    - target: {fileID: 3240690392320441848, guid: 7ce6c18a915b05049b7370f4d0594f81,
        type: 3}
      propertyPath: m_Positions.Array.data[1].x
      value: 4.119512
      objectReference: {fileID: 0}
    - target: {fileID: 3240690392320441848, guid: 7ce6c18a915b05049b7370f4d0594f81,
        type: 3}
      propertyPath: m_Positions.Array.data[2].x
      value: 3.0219812
      objectReference: {fileID: 0}
    - target: {fileID: 3240690392320441848, guid: 7ce6c18a915b05049b7370f4d0594f81,
        type: 3}
      propertyPath: m_Positions.Array.data[3].x
      value: 1.9981377
      objectReference: {fileID: 0}
    - target: {fileID: 3240690392320441848, guid: 7ce6c18a915b05049b7370f4d0594f81,
        type: 3}
      propertyPath: m_Positions.Array.data[4].x
      value: 1.0455455
      objectReference: {fileID: 0}
    - target: {fileID: 3240690392320441848, guid: 7ce6c18a915b05049b7370f4d0594f81,
        type: 3}
      propertyPath: m_Positions.Array.data[5].x
      value: 0.16176908
      objectReference: {fileID: 0}
    - target: {fileID: 3240690392320441848, guid: 7ce6c18a915b05049b7370f4d0594f81,
        type: 3}
      propertyPath: m_Positions.Array.data[6].x
      value: -0.65562695
      objectReference: {fileID: 0}
    - target: {fileID: 3240690392320441848, guid: 7ce6c18a915b05049b7370f4d0594f81,
        type: 3}
      propertyPath: m_Positions.Array.data[7].x
      value: -1.4090782
      objectReference: {fileID: 0}
    - target: {fileID: 3240690392320441848, guid: 7ce6c18a915b05049b7370f4d0594f81,
        type: 3}
      propertyPath: m_Positions.Array.data[8].x
      value: -2.1010203
      objectReference: {fileID: 0}
    - target: {fileID: 3240690392320441848, guid: 7ce6c18a915b05049b7370f4d0594f81,
        type: 3}
      propertyPath: m_Positions.Array.data[9].x
      value: -2.7338889
      objectReference: {fileID: 0}
    - target: {fileID: 3240690392320441848, guid: 7ce6c18a915b05049b7370f4d0594f81,
        type: 3}
      propertyPath: m_Positions.Array.data[10].x
      value: -3.3101192
      objectReference: {fileID: 0}
    - target: {fileID: 3240690392320441848, guid: 7ce6c18a915b05049b7370f4d0594f81,
        type: 3}
      propertyPath: m_Positions.Array.data[11].x
      value: -3.832147
      objectReference: {fileID: 0}
    - target: {fileID: 3240690392320441848, guid: 7ce6c18a915b05049b7370f4d0594f81,
        type: 3}
      propertyPath: m_Positions.Array.data[12].x
      value: -4.3024077
      objectReference: {fileID: 0}
    - target: {fileID: 3240690392320441848, guid: 7ce6c18a915b05049b7370f4d0594f81,
        type: 3}
      propertyPath: m_Positions.Array.data[13].x
      value: -4.723337
      objectReference: {fileID: 0}
    - target: {fileID: 3240690392320441848, guid: 7ce6c18a915b05049b7370f4d0594f81,
        type: 3}
      propertyPath: m_Positions.Array.data[14].x
      value: -5.0973706
      objectReference: {fileID: 0}
    - target: {fileID: 3240690392320441848, guid: 7ce6c18a915b05049b7370f4d0594f81,
        type: 3}
      propertyPath: m_Positions.Array.data[15].x
      value: -5.426944
      objectReference: {fileID: 0}
    - target: {fileID: 3240690392320441848, guid: 7ce6c18a915b05049b7370f4d0594f81,
        type: 3}
      propertyPath: m_Positions.Array.data[16].x
      value: -5.7144923
      objectReference: {fileID: 0}
    - target: {fileID: 3240690392320441848, guid: 7ce6c18a915b05049b7370f4d0594f81,
        type: 3}
      propertyPath: m_Positions.Array.data[17].x
      value: -5.9624515
      objectReference: {fileID: 0}
    - target: {fileID: 3240690392320441848, guid: 7ce6c18a915b05049b7370f4d0594f81,
        type: 3}
      propertyPath: m_Positions.Array.data[18].x
      value: -6.173257
      objectReference: {fileID: 0}
    - target: {fileID: 3240690392320441848, guid: 7ce6c18a915b05049b7370f4d0594f81,
        type: 3}
      propertyPath: m_Positions.Array.data[19].x
      value: -6.3493447
      objectReference: {fileID: 0}
    - target: {fileID: 3240690392320441848, guid: 7ce6c18a915b05049b7370f4d0594f81,
        type: 3}
      propertyPath: m_Positions.Array.data[20].x
      value: -6.4931493
      objectReference: {fileID: 0}
    - target: {fileID: 3240690392320441848, guid: 7ce6c18a915b05049b7370f4d0594f81,
        type: 3}
      propertyPath: m_Positions.Array.data[21].x
      value: -6.6071076
      objectReference: {fileID: 0}
    - target: {fileID: 3240690392320441848, guid: 7ce6c18a915b05049b7370f4d0594f81,
        type: 3}
      propertyPath: m_Positions.Array.data[22].x
      value: -6.693654
      objectReference: {fileID: 0}
    - target: {fileID: 3240690392320441848, guid: 7ce6c18a915b05049b7370f4d0594f81,
        type: 3}
      propertyPath: m_Positions.Array.data[23].x
      value: -6.7552247
      objectReference: {fileID: 0}
    - target: {fileID: 3240690392320441848, guid: 7ce6c18a915b05049b7370f4d0594f81,
        type: 3}
      propertyPath: m_Positions.Array.data[24].x
      value: -6.7942553
      objectReference: {fileID: 0}
    - target: {fileID: 3240690392320441848, guid: 7ce6c18a915b05049b7370f4d0594f81,
        type: 3}
      propertyPath: m_Positions.Array.data[25].x
      value: -6.813181
      objectReference: {fileID: 0}
    - target: {fileID: 3240690392320441848, guid: 7ce6c18a915b05049b7370f4d0594f81,
        type: 3}
      propertyPath: m_Positions.Array.data[26].x
      value: -6.8144374
      objectReference: {fileID: 0}
    - target: {fileID: 3240690392320441848, guid: 7ce6c18a915b05049b7370f4d0594f81,
        type: 3}
      propertyPath: m_Positions.Array.data[27].x
      value: -6.80046
      objectReference: {fileID: 0}
    - target: {fileID: 3240690392320441848, guid: 7ce6c18a915b05049b7370f4d0594f81,
        type: 3}
      propertyPath: m_Positions.Array.data[28].x
      value: -6.7736845
      objectReference: {fileID: 0}
    - target: {fileID: 3240690392320441848, guid: 7ce6c18a915b05049b7370f4d0594f81,
        type: 3}
      propertyPath: m_Positions.Array.data[29].x
      value: -6.736547
      objectReference: {fileID: 0}
    - target: {fileID: 3240690392320441848, guid: 7ce6c18a915b05049b7370f4d0594f81,
        type: 3}
      propertyPath: m_Positions.Array.data[30].x
      value: -6.691482
      objectReference: {fileID: 0}
    - target: {fileID: 3240690392320441848, guid: 7ce6c18a915b05049b7370f4d0594f81,
        type: 3}
      propertyPath: m_Positions.Array.data[31].x
      value: -6.682085
      objectReference: {fileID: 0}
    - target: {fileID: 3240690392320441848, guid: 7ce6c18a915b05049b7370f4d0594f81,
        type: 3}
      propertyPath: m_Positions.Array.data[32].x
      value: -6.6137495
      objectReference: {fileID: 0}
    - target: {fileID: 3240690392320441848, guid: 7ce6c18a915b05049b7370f4d0594f81,
        type: 3}
      propertyPath: m_Positions.Array.data[33].x
      value: -6.4896507
      objectReference: {fileID: 0}
    - target: {fileID: 3240690392320441848, guid: 7ce6c18a915b05049b7370f4d0594f81,
        type: 3}
      propertyPath: m_Positions.Array.data[34].x
      value: -6.3129644
      objectReference: {fileID: 0}
    - target: {fileID: 3240690392320441848, guid: 7ce6c18a915b05049b7370f4d0594f81,
        type: 3}
      propertyPath: m_Positions.Array.data[35].x
      value: -6.0868654
      objectReference: {fileID: 0}
    - target: {fileID: 3240690392320441848, guid: 7ce6c18a915b05049b7370f4d0594f81,
        type: 3}
      propertyPath: m_Positions.Array.data[36].x
      value: -5.81453
      objectReference: {fileID: 0}
    - target: {fileID: 3240690392320441848, guid: 7ce6c18a915b05049b7370f4d0594f81,
        type: 3}
      propertyPath: m_Positions.Array.data[37].x
      value: -5.499133
      objectReference: {fileID: 0}
    - target: {fileID: 3240690392320441848, guid: 7ce6c18a915b05049b7370f4d0594f81,
        type: 3}
      propertyPath: m_Positions.Array.data[38].x
      value: -5.143851
      objectReference: {fileID: 0}
    - target: {fileID: 3240690392320441848, guid: 7ce6c18a915b05049b7370f4d0594f81,
        type: 3}
      propertyPath: m_Positions.Array.data[39].x
      value: -4.7518578
      objectReference: {fileID: 0}
    - target: {fileID: 3240690392320441848, guid: 7ce6c18a915b05049b7370f4d0594f81,
        type: 3}
      propertyPath: m_Positions.Array.data[40].x
      value: -4.3263307
      objectReference: {fileID: 0}
    - target: {fileID: 3240690392320441848, guid: 7ce6c18a915b05049b7370f4d0594f81,
        type: 3}
      propertyPath: m_Positions.Array.data[41].x
      value: -3.8704438
      objectReference: {fileID: 0}
    - target: {fileID: 3240690392320441848, guid: 7ce6c18a915b05049b7370f4d0594f81,
        type: 3}
      propertyPath: m_Positions.Array.data[42].x
      value: -3.3873737
      objectReference: {fileID: 0}
    - target: {fileID: 3240690392320441848, guid: 7ce6c18a915b05049b7370f4d0594f81,
        type: 3}
      propertyPath: m_Positions.Array.data[43].x
      value: -2.8802953
      objectReference: {fileID: 0}
    - target: {fileID: 3240690392320441848, guid: 7ce6c18a915b05049b7370f4d0594f81,
        type: 3}
      propertyPath: m_Positions.Array.data[44].x
      value: -2.352384
      objectReference: {fileID: 0}
    - target: {fileID: 3240690392320441848, guid: 7ce6c18a915b05049b7370f4d0594f81,
        type: 3}
      propertyPath: m_Positions.Array.data[45].x
      value: -1.8068157
      objectReference: {fileID: 0}
    - target: {fileID: 3240690392320441848, guid: 7ce6c18a915b05049b7370f4d0594f81,
        type: 3}
      propertyPath: m_Positions.Array.data[46].x
      value: -1.2467657
      objectReference: {fileID: 0}
    - target: {fileID: 3240690392320441848, guid: 7ce6c18a915b05049b7370f4d0594f81,
        type: 3}
      propertyPath: m_Positions.Array.data[47].x
      value: -0.6754097
      objectReference: {fileID: 0}
    - target: {fileID: 3240690392320441848, guid: 7ce6c18a915b05049b7370f4d0594f81,
        type: 3}
      propertyPath: m_Positions.Array.data[48].x
      value: -0.09592289
      objectReference: {fileID: 0}
    - target: {fileID: 3240690392320441848, guid: 7ce6c18a915b05049b7370f4d0594f81,
        type: 3}
      propertyPath: m_Positions.Array.data[49].x
      value: 0.488519
      objectReference: {fileID: 0}
    - target: {fileID: 3240690392320441848, guid: 7ce6c18a915b05049b7370f4d0594f81,
        type: 3}
      propertyPath: m_Positions.Array.data[50].x
      value: 1.0747405
      objectReference: {fileID: 0}
    - target: {fileID: 3240690392320441848, guid: 7ce6c18a915b05049b7370f4d0594f81,
        type: 3}
      propertyPath: m_Positions.Array.data[51].x
      value: 1.6595663
      objectReference: {fileID: 0}
    - target: {fileID: 3240690392320441848, guid: 7ce6c18a915b05049b7370f4d0594f81,
        type: 3}
      propertyPath: m_Positions.Array.data[52].x
      value: 2.2398205
      objectReference: {fileID: 0}
    - target: {fileID: 3240690392320441848, guid: 7ce6c18a915b05049b7370f4d0594f81,
        type: 3}
      propertyPath: m_Positions.Array.data[53].x
      value: 2.8123279
      objectReference: {fileID: 0}
    - target: {fileID: 3240690392320441848, guid: 7ce6c18a915b05049b7370f4d0594f81,
        type: 3}
      propertyPath: m_Positions.Array.data[54].x
      value: 3.373913
      objectReference: {fileID: 0}
    - target: {fileID: 3240690392320441848, guid: 7ce6c18a915b05049b7370f4d0594f81,
        type: 3}
      propertyPath: m_Positions.Array.data[55].x
      value: 3.9214
      objectReference: {fileID: 0}
    - target: {fileID: 3240690392320441848, guid: 7ce6c18a915b05049b7370f4d0594f81,
        type: 3}
      propertyPath: m_Positions.Array.data[56].x
      value: 4.451614
      objectReference: {fileID: 0}
    - target: {fileID: 3240690392320441848, guid: 7ce6c18a915b05049b7370f4d0594f81,
        type: 3}
      propertyPath: m_Positions.Array.data[57].x
      value: 4.9613786
      objectReference: {fileID: 0}
    - target: {fileID: 3240690392320441848, guid: 7ce6c18a915b05049b7370f4d0594f81,
        type: 3}
      propertyPath: m_Positions.Array.data[58].x
      value: 5.447519
      objectReference: {fileID: 0}
    - target: {fileID: 3240690392320441848, guid: 7ce6c18a915b05049b7370f4d0594f81,
        type: 3}
      propertyPath: m_Positions.Array.data[59].x
      value: 5.9068594
      objectReference: {fileID: 0}
    - target: {fileID: 3240690392320441848, guid: 7ce6c18a915b05049b7370f4d0594f81,
        type: 3}
      propertyPath: m_Positions.Array.data[60].x
      value: 6.3362246
      objectReference: {fileID: 0}
    - target: {fileID: 3240690392320441848, guid: 7ce6c18a915b05049b7370f4d0594f81,
        type: 3}
      propertyPath: m_Positions.Array.data[61].x
      value: 6.1973686
      objectReference: {fileID: 0}
    - target: {fileID: 3240690392320441848, guid: 7ce6c18a915b05049b7370f4d0594f81,
        type: 3}
      propertyPath: m_Positions.Array.data[62].x
      value: 5.9902196
      objectReference: {fileID: 0}
    - target: {fileID: 3240690392320441848, guid: 7ce6c18a915b05049b7370f4d0594f81,
        type: 3}
      propertyPath: m_Positions.Array.data[63].x
      value: 5.7198696
      objectReference: {fileID: 0}
    - target: {fileID: 3240690392320441848, guid: 7ce6c18a915b05049b7370f4d0594f81,
        type: 3}
      propertyPath: m_Positions.Array.data[64].x
      value: 5.3914104
      objectReference: {fileID: 0}
    - target: {fileID: 3240690392320441848, guid: 7ce6c18a915b05049b7370f4d0594f81,
        type: 3}
      propertyPath: m_Positions.Array.data[65].x
      value: 5.009933
      objectReference: {fileID: 0}
    - target: {fileID: 3240690392320441848, guid: 7ce6c18a915b05049b7370f4d0594f81,
        type: 3}
      propertyPath: m_Positions.Array.data[66].x
      value: 4.5805297
      objectReference: {fileID: 0}
    - target: {fileID: 3240690392320441848, guid: 7ce6c18a915b05049b7370f4d0594f81,
        type: 3}
      propertyPath: m_Positions.Array.data[67].x
      value: 4.1082916
      objectReference: {fileID: 0}
    - target: {fileID: 3240690392320441848, guid: 7ce6c18a915b05049b7370f4d0594f81,
        type: 3}
      propertyPath: m_Positions.Array.data[68].x
      value: 3.5983102
      objectReference: {fileID: 0}
    - target: {fileID: 3240690392320441848, guid: 7ce6c18a915b05049b7370f4d0594f81,
        type: 3}
      propertyPath: m_Positions.Array.data[69].x
      value: 3.0556772
      objectReference: {fileID: 0}
    - target: {fileID: 3240690392320441848, guid: 7ce6c18a915b05049b7370f4d0594f81,
        type: 3}
      propertyPath: m_Positions.Array.data[70].x
      value: 2.4854844
      objectReference: {fileID: 0}
    - target: {fileID: 3240690392320441848, guid: 7ce6c18a915b05049b7370f4d0594f81,
        type: 3}
      propertyPath: m_Positions.Array.data[71].x
      value: 1.8928232
      objectReference: {fileID: 0}
    - target: {fileID: 3240690392320441848, guid: 7ce6c18a915b05049b7370f4d0594f81,
        type: 3}
      propertyPath: m_Positions.Array.data[72].x
      value: 1.2827853
      objectReference: {fileID: 0}
    - target: {fileID: 3240690392320441848, guid: 7ce6c18a915b05049b7370f4d0594f81,
        type: 3}
      propertyPath: m_Positions.Array.data[73].x
      value: 0.6604621
      objectReference: {fileID: 0}
    - target: {fileID: 3240690392320441848, guid: 7ce6c18a915b05049b7370f4d0594f81,
        type: 3}
      propertyPath: m_Positions.Array.data[74].x
      value: 0.030945271
      objectReference: {fileID: 0}
    - target: {fileID: 3240690392320441848, guid: 7ce6c18a915b05049b7370f4d0594f81,
        type: 3}
      propertyPath: m_Positions.Array.data[75].x
      value: -0.60067356
      objectReference: {fileID: 0}
    - target: {fileID: 3240690392320441848, guid: 7ce6c18a915b05049b7370f4d0594f81,
        type: 3}
      propertyPath: m_Positions.Array.data[76].x
      value: -1.2293029
      objectReference: {fileID: 0}
    - target: {fileID: 3240690392320441848, guid: 7ce6c18a915b05049b7370f4d0594f81,
        type: 3}
      propertyPath: m_Positions.Array.data[77].x
      value: -1.849851
      objectReference: {fileID: 0}
    - target: {fileID: 3240690392320441848, guid: 7ce6c18a915b05049b7370f4d0594f81,
        type: 3}
      propertyPath: m_Positions.Array.data[78].x
      value: -2.4572263
      objectReference: {fileID: 0}
    - target: {fileID: 3240690392320441848, guid: 7ce6c18a915b05049b7370f4d0594f81,
        type: 3}
      propertyPath: m_Positions.Array.data[79].x
      value: -3.0463374
      objectReference: {fileID: 0}
    - target: {fileID: 3240690392320441848, guid: 7ce6c18a915b05049b7370f4d0594f81,
        type: 3}
      propertyPath: m_Positions.Array.data[80].x
      value: -3.6120927
      objectReference: {fileID: 0}
    - target: {fileID: 3240690392320441848, guid: 7ce6c18a915b05049b7370f4d0594f81,
        type: 3}
      propertyPath: m_Positions.Array.data[81].x
      value: -4.1494
      objectReference: {fileID: 0}
    - target: {fileID: 3240690392320441848, guid: 7ce6c18a915b05049b7370f4d0594f81,
        type: 3}
      propertyPath: m_Positions.Array.data[82].x
      value: -4.653169
      objectReference: {fileID: 0}
    - target: {fileID: 3240690392320441848, guid: 7ce6c18a915b05049b7370f4d0594f81,
        type: 3}
      propertyPath: m_Positions.Array.data[83].x
      value: -5.118307
      objectReference: {fileID: 0}
    - target: {fileID: 3240690392320441848, guid: 7ce6c18a915b05049b7370f4d0594f81,
        type: 3}
      propertyPath: m_Positions.Array.data[84].x
      value: -5.539723
      objectReference: {fileID: 0}
    - target: {fileID: 3240690392320441848, guid: 7ce6c18a915b05049b7370f4d0594f81,
        type: 3}
      propertyPath: m_Positions.Array.data[85].x
      value: -5.912325
      objectReference: {fileID: 0}
    - target: {fileID: 3240690392320441848, guid: 7ce6c18a915b05049b7370f4d0594f81,
        type: 3}
      propertyPath: m_Positions.Array.data[86].x
      value: -6.2310214
      objectReference: {fileID: 0}
    - target: {fileID: 3240690392320441848, guid: 7ce6c18a915b05049b7370f4d0594f81,
        type: 3}
      propertyPath: m_Positions.Array.data[87].x
      value: -6.4907207
      objectReference: {fileID: 0}
    - target: {fileID: 3240690392320441848, guid: 7ce6c18a915b05049b7370f4d0594f81,
        type: 3}
      propertyPath: m_Positions.Array.data[88].x
      value: -6.6863317
      objectReference: {fileID: 0}
    - target: {fileID: 3240690392320441848, guid: 7ce6c18a915b05049b7370f4d0594f81,
        type: 3}
      propertyPath: m_Positions.Array.data[89].x
      value: -6.8127627
      objectReference: {fileID: 0}
    - target: {fileID: 3240690392320441848, guid: 7ce6c18a915b05049b7370f4d0594f81,
        type: 3}
      propertyPath: m_Positions.Array.data[90].x
      value: -6.8649216
      objectReference: {fileID: 0}
    - target: {fileID: 3240690392320441848, guid: 7ce6c18a915b05049b7370f4d0594f81,
        type: 3}
      propertyPath: m_Positions.Array.data[91].x
      value: -6.179475
      objectReference: {fileID: 0}
    - target: {fileID: 3240690392320441848, guid: 7ce6c18a915b05049b7370f4d0594f81,
        type: 3}
      propertyPath: m_Positions.Array.data[92].x
      value: -5.503929
      objectReference: {fileID: 0}
    - target: {fileID: 3240690392320441848, guid: 7ce6c18a915b05049b7370f4d0594f81,
        type: 3}
      propertyPath: m_Positions.Array.data[93].x
      value: -4.8392086
      objectReference: {fileID: 0}
    - target: {fileID: 3240690392320441848, guid: 7ce6c18a915b05049b7370f4d0594f81,
        type: 3}
      propertyPath: m_Positions.Array.data[94].x
      value: -4.186237
      objectReference: {fileID: 0}
    - target: {fileID: 3240690392320441848, guid: 7ce6c18a915b05049b7370f4d0594f81,
        type: 3}
      propertyPath: m_Positions.Array.data[95].x
      value: -3.5459373
      objectReference: {fileID: 0}
    - target: {fileID: 3240690392320441848, guid: 7ce6c18a915b05049b7370f4d0594f81,
        type: 3}
      propertyPath: m_Positions.Array.data[96].x
      value: -2.9192343
      objectReference: {fileID: 0}
    - target: {fileID: 3240690392320441848, guid: 7ce6c18a915b05049b7370f4d0594f81,
        type: 3}
      propertyPath: m_Positions.Array.data[97].x
      value: -2.3070512
      objectReference: {fileID: 0}
    - target: {fileID: 3240690392320441848, guid: 7ce6c18a915b05049b7370f4d0594f81,
        type: 3}
      propertyPath: m_Positions.Array.data[98].x
      value: -1.7103121
      objectReference: {fileID: 0}
    - target: {fileID: 3240690392320441848, guid: 7ce6c18a915b05049b7370f4d0594f81,
        type: 3}
      propertyPath: m_Positions.Array.data[99].x
      value: -1.1299405
      objectReference: {fileID: 0}
    - target: {fileID: 3240690392320441848, guid: 7ce6c18a915b05049b7370f4d0594f81,
        type: 3}
      propertyPath: m_Positions.Array.data[100].x
      value: -0.5668604
      objectReference: {fileID: 0}
    - target: {fileID: 3240690392320441848, guid: 7ce6c18a915b05049b7370f4d0594f81,
        type: 3}
      propertyPath: m_Positions.Array.data[101].x
      value: -0.02199535
      objectReference: {fileID: 0}
    - target: {fileID: 3240690392320441848, guid: 7ce6c18a915b05049b7370f4d0594f81,
        type: 3}
      propertyPath: m_Positions.Array.data[102].x
      value: 0.5037308
      objectReference: {fileID: 0}
    - target: {fileID: 3240690392320441848, guid: 7ce6c18a915b05049b7370f4d0594f81,
        type: 3}
      propertyPath: m_Positions.Array.data[103].x
      value: 1.0093942
      objectReference: {fileID: 0}
    - target: {fileID: 3240690392320441848, guid: 7ce6c18a915b05049b7370f4d0594f81,
        type: 3}
      propertyPath: m_Positions.Array.data[104].x
      value: 1.4940711
      objectReference: {fileID: 0}
    - target: {fileID: 3240690392320441848, guid: 7ce6c18a915b05049b7370f4d0594f81,
        type: 3}
      propertyPath: m_Positions.Array.data[105].x
      value: 1.9568379
      objectReference: {fileID: 0}
    - target: {fileID: 3240690392320441848, guid: 7ce6c18a915b05049b7370f4d0594f81,
        type: 3}
      propertyPath: m_Positions.Array.data[106].x
      value: 2.3967707
      objectReference: {fileID: 0}
    - target: {fileID: 3240690392320441848, guid: 7ce6c18a915b05049b7370f4d0594f81,
        type: 3}
      propertyPath: m_Positions.Array.data[107].x
      value: 2.8129456
      objectReference: {fileID: 0}
    - target: {fileID: 3240690392320441848, guid: 7ce6c18a915b05049b7370f4d0594f81,
        type: 3}
      propertyPath: m_Positions.Array.data[108].x
      value: 3.2044392
      objectReference: {fileID: 0}
    - target: {fileID: 3240690392320441848, guid: 7ce6c18a915b05049b7370f4d0594f81,
        type: 3}
      propertyPath: m_Positions.Array.data[109].x
      value: 3.5703273
      objectReference: {fileID: 0}
    - target: {fileID: 3240690392320441848, guid: 7ce6c18a915b05049b7370f4d0594f81,
        type: 3}
      propertyPath: m_Positions.Array.data[110].x
      value: 3.9096863
      objectReference: {fileID: 0}
    - target: {fileID: 3240690392320441848, guid: 7ce6c18a915b05049b7370f4d0594f81,
        type: 3}
      propertyPath: m_Positions.Array.data[111].x
      value: 4.2215924
      objectReference: {fileID: 0}
    - target: {fileID: 3240690392320441848, guid: 7ce6c18a915b05049b7370f4d0594f81,
        type: 3}
      propertyPath: m_Positions.Array.data[112].x
      value: 4.505122
      objectReference: {fileID: 0}
    - target: {fileID: 3240690392320441848, guid: 7ce6c18a915b05049b7370f4d0594f81,
        type: 3}
      propertyPath: m_Positions.Array.data[113].x
      value: 4.7593513
      objectReference: {fileID: 0}
    - target: {fileID: 3240690392320441848, guid: 7ce6c18a915b05049b7370f4d0594f81,
        type: 3}
      propertyPath: m_Positions.Array.data[114].x
      value: 4.9833565
      objectReference: {fileID: 0}
    - target: {fileID: 3240690392320441848, guid: 7ce6c18a915b05049b7370f4d0594f81,
        type: 3}
      propertyPath: m_Positions.Array.data[115].x
      value: 5.1762133
      objectReference: {fileID: 0}
    - target: {fileID: 3240690392320441848, guid: 7ce6c18a915b05049b7370f4d0594f81,
        type: 3}
      propertyPath: m_Positions.Array.data[116].x
      value: 5.336999
      objectReference: {fileID: 0}
    - target: {fileID: 3240690392320441848, guid: 7ce6c18a915b05049b7370f4d0594f81,
        type: 3}
      propertyPath: m_Positions.Array.data[117].x
      value: 5.464789
      objectReference: {fileID: 0}
    - target: {fileID: 3240690392320441848, guid: 7ce6c18a915b05049b7370f4d0594f81,
        type: 3}
      propertyPath: m_Positions.Array.data[118].x
      value: 5.5586596
      objectReference: {fileID: 0}
    - target: {fileID: 3240690392320441848, guid: 7ce6c18a915b05049b7370f4d0594f81,
        type: 3}
      propertyPath: m_Positions.Array.data[119].x
      value: 5.617687
      objectReference: {fileID: 0}
    - target: {fileID: 3240690392320441848, guid: 7ce6c18a915b05049b7370f4d0594f81,
        type: 3}
      propertyPath: m_Positions.Array.data[120].x
      value: 5.6409483
      objectReference: {fileID: 0}
    - target: {fileID: 3240690392320441848, guid: 7ce6c18a915b05049b7370f4d0594f81,
        type: 3}
      propertyPath: m_Positions.Array.data[121].x
      value: 5.670954
      objectReference: {fileID: 0}
    - target: {fileID: 3240690392320441848, guid: 7ce6c18a915b05049b7370f4d0594f81,
        type: 3}
      propertyPath: m_Positions.Array.data[122].x
      value: 5.6343307
      objectReference: {fileID: 0}
    - target: {fileID: 3240690392320441848, guid: 7ce6c18a915b05049b7370f4d0594f81,
        type: 3}
      propertyPath: m_Positions.Array.data[123].x
      value: 5.5351033
      objectReference: {fileID: 0}
    - target: {fileID: 3240690392320441848, guid: 7ce6c18a915b05049b7370f4d0594f81,
        type: 3}
      propertyPath: m_Positions.Array.data[124].x
      value: 5.3772974
      objectReference: {fileID: 0}
    - target: {fileID: 3240690392320441848, guid: 7ce6c18a915b05049b7370f4d0594f81,
        type: 3}
      propertyPath: m_Positions.Array.data[125].x
      value: 5.164937
      objectReference: {fileID: 0}
    - target: {fileID: 3240690392320441848, guid: 7ce6c18a915b05049b7370f4d0594f81,
        type: 3}
      propertyPath: m_Positions.Array.data[126].x
      value: 4.902048
      objectReference: {fileID: 0}
    - target: {fileID: 3240690392320441848, guid: 7ce6c18a915b05049b7370f4d0594f81,
        type: 3}
      propertyPath: m_Positions.Array.data[127].x
      value: 4.592655
      objectReference: {fileID: 0}
    - target: {fileID: 3240690392320441848, guid: 7ce6c18a915b05049b7370f4d0594f81,
        type: 3}
      propertyPath: m_Positions.Array.data[128].x
      value: 4.240783
      objectReference: {fileID: 0}
    - target: {fileID: 3240690392320441848, guid: 7ce6c18a915b05049b7370f4d0594f81,
        type: 3}
      propertyPath: m_Positions.Array.data[129].x
      value: 3.8504577
      objectReference: {fileID: 0}
    - target: {fileID: 3240690392320441848, guid: 7ce6c18a915b05049b7370f4d0594f81,
        type: 3}
      propertyPath: m_Positions.Array.data[130].x
      value: 3.4257033
      objectReference: {fileID: 0}
    - target: {fileID: 3240690392320441848, guid: 7ce6c18a915b05049b7370f4d0594f81,
        type: 3}
      propertyPath: m_Positions.Array.data[131].x
      value: 2.9705453
      objectReference: {fileID: 0}
    - target: {fileID: 3240690392320441848, guid: 7ce6c18a915b05049b7370f4d0594f81,
        type: 3}
      propertyPath: m_Positions.Array.data[132].x
      value: 2.4890087
      objectReference: {fileID: 0}
    - target: {fileID: 3240690392320441848, guid: 7ce6c18a915b05049b7370f4d0594f81,
        type: 3}
      propertyPath: m_Positions.Array.data[133].x
      value: 1.9851184
      objectReference: {fileID: 0}
    - target: {fileID: 3240690392320441848, guid: 7ce6c18a915b05049b7370f4d0594f81,
        type: 3}
      propertyPath: m_Positions.Array.data[134].x
      value: 1.4628994
      objectReference: {fileID: 0}
    - target: {fileID: 3240690392320441848, guid: 7ce6c18a915b05049b7370f4d0594f81,
        type: 3}
      propertyPath: m_Positions.Array.data[135].x
      value: 0.92637706
      objectReference: {fileID: 0}
    - target: {fileID: 3240690392320441848, guid: 7ce6c18a915b05049b7370f4d0594f81,
        type: 3}
      propertyPath: m_Positions.Array.data[136].x
      value: 0.37957612
      objectReference: {fileID: 0}
    - target: {fileID: 3240690392320441848, guid: 7ce6c18a915b05049b7370f4d0594f81,
        type: 3}
      propertyPath: m_Positions.Array.data[137].x
      value: -0.1734783
      objectReference: {fileID: 0}
    - target: {fileID: 3240690392320441848, guid: 7ce6c18a915b05049b7370f4d0594f81,
        type: 3}
      propertyPath: m_Positions.Array.data[138].x
      value: -0.72876114
      objectReference: {fileID: 0}
    - target: {fileID: 3240690392320441848, guid: 7ce6c18a915b05049b7370f4d0594f81,
        type: 3}
      propertyPath: m_Positions.Array.data[139].x
      value: -1.2822474
      objectReference: {fileID: 0}
    - target: {fileID: 3240690392320441848, guid: 7ce6c18a915b05049b7370f4d0594f81,
        type: 3}
      propertyPath: m_Positions.Array.data[140].x
      value: -1.8299121
      objectReference: {fileID: 0}
    - target: {fileID: 3240690392320441848, guid: 7ce6c18a915b05049b7370f4d0594f81,
        type: 3}
      propertyPath: m_Positions.Array.data[141].x
      value: -2.36773
      objectReference: {fileID: 0}
    - target: {fileID: 3240690392320441848, guid: 7ce6c18a915b05049b7370f4d0594f81,
        type: 3}
      propertyPath: m_Positions.Array.data[142].x
      value: -2.8916762
      objectReference: {fileID: 0}
    - target: {fileID: 3240690392320441848, guid: 7ce6c18a915b05049b7370f4d0594f81,
        type: 3}
      propertyPath: m_Positions.Array.data[143].x
      value: -3.3977256
      objectReference: {fileID: 0}
    - target: {fileID: 3240690392320441848, guid: 7ce6c18a915b05049b7370f4d0594f81,
        type: 3}
      propertyPath: m_Positions.Array.data[144].x
      value: -3.881853
      objectReference: {fileID: 0}
    - target: {fileID: 3240690392320441848, guid: 7ce6c18a915b05049b7370f4d0594f81,
        type: 3}
      propertyPath: m_Positions.Array.data[145].x
      value: -4.340034
      objectReference: {fileID: 0}
    - target: {fileID: 3240690392320441848, guid: 7ce6c18a915b05049b7370f4d0594f81,
        type: 3}
      propertyPath: m_Positions.Array.data[146].x
      value: -4.768243
      objectReference: {fileID: 0}
    - target: {fileID: 3240690392320441848, guid: 7ce6c18a915b05049b7370f4d0594f81,
        type: 3}
      propertyPath: m_Positions.Array.data[147].x
      value: -5.162455
      objectReference: {fileID: 0}
    - target: {fileID: 3240690392320441848, guid: 7ce6c18a915b05049b7370f4d0594f81,
        type: 3}
      propertyPath: m_Positions.Array.data[148].x
      value: -5.518645
      objectReference: {fileID: 0}
    - target: {fileID: 3240690392320441848, guid: 7ce6c18a915b05049b7370f4d0594f81,
        type: 3}
      propertyPath: m_Positions.Array.data[149].x
      value: -5.832788
      objectReference: {fileID: 0}
    - target: {fileID: 3240690392320441848, guid: 7ce6c18a915b05049b7370f4d0594f81,
        type: 3}
      propertyPath: m_Positions.Array.data[150].x
      value: -6.100859
      objectReference: {fileID: 0}
    - target: {fileID: 3240690392320441848, guid: 7ce6c18a915b05049b7370f4d0594f81,
        type: 3}
      propertyPath: m_Positions.Array.data[0].z
      value: 9.9175625
      objectReference: {fileID: 0}
    - target: {fileID: 3240690392320441848, guid: 7ce6c18a915b05049b7370f4d0594f81,
        type: 3}
      propertyPath: m_Positions.Array.data[1].z
      value: 9.553392
      objectReference: {fileID: 0}
    - target: {fileID: 3240690392320441848, guid: 7ce6c18a915b05049b7370f4d0594f81,
        type: 3}
      propertyPath: m_Positions.Array.data[2].z
      value: 9.1948185
      objectReference: {fileID: 0}
    - target: {fileID: 3240690392320441848, guid: 7ce6c18a915b05049b7370f4d0594f81,
        type: 3}
      propertyPath: m_Positions.Array.data[3].z
      value: 8.842415
      objectReference: {fileID: 0}
    - target: {fileID: 3240690392320441848, guid: 7ce6c18a915b05049b7370f4d0594f81,
        type: 3}
      propertyPath: m_Positions.Array.data[4].z
      value: 8.496759
      objectReference: {fileID: 0}
    - target: {fileID: 3240690392320441848, guid: 7ce6c18a915b05049b7370f4d0594f81,
        type: 3}
      propertyPath: m_Positions.Array.data[5].z
      value: 8.158427
      objectReference: {fileID: 0}
    - target: {fileID: 3240690392320441848, guid: 7ce6c18a915b05049b7370f4d0594f81,
        type: 3}
      propertyPath: m_Positions.Array.data[6].z
      value: 7.8279953
      objectReference: {fileID: 0}
    - target: {fileID: 3240690392320441848, guid: 7ce6c18a915b05049b7370f4d0594f81,
        type: 3}
      propertyPath: m_Positions.Array.data[7].z
      value: 7.506039
      objectReference: {fileID: 0}
    - target: {fileID: 3240690392320441848, guid: 7ce6c18a915b05049b7370f4d0594f81,
        type: 3}
      propertyPath: m_Positions.Array.data[8].z
      value: 7.1931353
      objectReference: {fileID: 0}
    - target: {fileID: 3240690392320441848, guid: 7ce6c18a915b05049b7370f4d0594f81,
        type: 3}
      propertyPath: m_Positions.Array.data[9].z
      value: 6.889859
      objectReference: {fileID: 0}
    - target: {fileID: 3240690392320441848, guid: 7ce6c18a915b05049b7370f4d0594f81,
        type: 3}
      propertyPath: m_Positions.Array.data[10].z
      value: 6.596788
      objectReference: {fileID: 0}
    - target: {fileID: 3240690392320441848, guid: 7ce6c18a915b05049b7370f4d0594f81,
        type: 3}
      propertyPath: m_Positions.Array.data[11].z
      value: 6.3144975
      objectReference: {fileID: 0}
    - target: {fileID: 3240690392320441848, guid: 7ce6c18a915b05049b7370f4d0594f81,
        type: 3}
      propertyPath: m_Positions.Array.data[12].z
      value: 6.0435634
      objectReference: {fileID: 0}
    - target: {fileID: 3240690392320441848, guid: 7ce6c18a915b05049b7370f4d0594f81,
        type: 3}
      propertyPath: m_Positions.Array.data[13].z
      value: 5.7845626
      objectReference: {fileID: 0}
    - target: {fileID: 3240690392320441848, guid: 7ce6c18a915b05049b7370f4d0594f81,
        type: 3}
      propertyPath: m_Positions.Array.data[14].z
      value: 5.5380707
      objectReference: {fileID: 0}
    - target: {fileID: 3240690392320441848, guid: 7ce6c18a915b05049b7370f4d0594f81,
        type: 3}
      propertyPath: m_Positions.Array.data[15].z
      value: 5.3046637
      objectReference: {fileID: 0}
    - target: {fileID: 3240690392320441848, guid: 7ce6c18a915b05049b7370f4d0594f81,
        type: 3}
      propertyPath: m_Positions.Array.data[16].z
      value: 5.0849185
      objectReference: {fileID: 0}
    - target: {fileID: 3240690392320441848, guid: 7ce6c18a915b05049b7370f4d0594f81,
        type: 3}
      propertyPath: m_Positions.Array.data[17].z
      value: 4.8794107
      objectReference: {fileID: 0}
    - target: {fileID: 3240690392320441848, guid: 7ce6c18a915b05049b7370f4d0594f81,
        type: 3}
      propertyPath: m_Positions.Array.data[18].z
      value: 4.688717
      objectReference: {fileID: 0}
    - target: {fileID: 3240690392320441848, guid: 7ce6c18a915b05049b7370f4d0594f81,
        type: 3}
      propertyPath: m_Positions.Array.data[19].z
      value: 4.5134125
      objectReference: {fileID: 0}
    - target: {fileID: 3240690392320441848, guid: 7ce6c18a915b05049b7370f4d0594f81,
        type: 3}
      propertyPath: m_Positions.Array.data[20].z
      value: 4.354074
      objectReference: {fileID: 0}
    - target: {fileID: 3240690392320441848, guid: 7ce6c18a915b05049b7370f4d0594f81,
        type: 3}
      propertyPath: m_Positions.Array.data[21].z
      value: 4.211278
      objectReference: {fileID: 0}
    - target: {fileID: 3240690392320441848, guid: 7ce6c18a915b05049b7370f4d0594f81,
        type: 3}
      propertyPath: m_Positions.Array.data[22].z
      value: 4.0856004
      objectReference: {fileID: 0}
    - target: {fileID: 3240690392320441848, guid: 7ce6c18a915b05049b7370f4d0594f81,
        type: 3}
      propertyPath: m_Positions.Array.data[23].z
      value: 3.977617
      objectReference: {fileID: 0}
    - target: {fileID: 3240690392320441848, guid: 7ce6c18a915b05049b7370f4d0594f81,
        type: 3}
      propertyPath: m_Positions.Array.data[24].z
      value: 3.8879042
      objectReference: {fileID: 0}
    - target: {fileID: 3240690392320441848, guid: 7ce6c18a915b05049b7370f4d0594f81,
        type: 3}
      propertyPath: m_Positions.Array.data[25].z
      value: 3.8170383
      objectReference: {fileID: 0}
    - target: {fileID: 3240690392320441848, guid: 7ce6c18a915b05049b7370f4d0594f81,
        type: 3}
      propertyPath: m_Positions.Array.data[26].z
      value: 3.7655952
      objectReference: {fileID: 0}
    - target: {fileID: 3240690392320441848, guid: 7ce6c18a915b05049b7370f4d0594f81,
        type: 3}
      propertyPath: m_Positions.Array.data[27].z
      value: 3.7341514
      objectReference: {fileID: 0}
    - target: {fileID: 3240690392320441848, guid: 7ce6c18a915b05049b7370f4d0594f81,
        type: 3}
      propertyPath: m_Positions.Array.data[28].z
      value: 3.7232826
      objectReference: {fileID: 0}
    - target: {fileID: 3240690392320441848, guid: 7ce6c18a915b05049b7370f4d0594f81,
        type: 3}
      propertyPath: m_Positions.Array.data[29].z
      value: 3.733565
      objectReference: {fileID: 0}
    - target: {fileID: 3240690392320441848, guid: 7ce6c18a915b05049b7370f4d0594f81,
        type: 3}
      propertyPath: m_Positions.Array.data[30].z
      value: 3.7655754
      objectReference: {fileID: 0}
    - target: {fileID: 3240690392320441848, guid: 7ce6c18a915b05049b7370f4d0594f81,
        type: 3}
      propertyPath: m_Positions.Array.data[31].z
      value: 3.6740813
      objectReference: {fileID: 0}
    - target: {fileID: 3240690392320441848, guid: 7ce6c18a915b05049b7370f4d0594f81,
        type: 3}
      propertyPath: m_Positions.Array.data[32].z
      value: 3.5943232
      objectReference: {fileID: 0}
    - target: {fileID: 3240690392320441848, guid: 7ce6c18a915b05049b7370f4d0594f81,
        type: 3}
      propertyPath: m_Positions.Array.data[33].z
      value: 3.5251613
      objectReference: {fileID: 0}
    - target: {fileID: 3240690392320441848, guid: 7ce6c18a915b05049b7370f4d0594f81,
        type: 3}
      propertyPath: m_Positions.Array.data[34].z
      value: 3.4654567
      objectReference: {fileID: 0}
    - target: {fileID: 3240690392320441848, guid: 7ce6c18a915b05049b7370f4d0594f81,
        type: 3}
      propertyPath: m_Positions.Array.data[35].z
      value: 3.41407
      objectReference: {fileID: 0}
    - target: {fileID: 3240690392320441848, guid: 7ce6c18a915b05049b7370f4d0594f81,
        type: 3}
      propertyPath: m_Positions.Array.data[36].z
      value: 3.3698616
      objectReference: {fileID: 0}
    - target: {fileID: 3240690392320441848, guid: 7ce6c18a915b05049b7370f4d0594f81,
        type: 3}
      propertyPath: m_Positions.Array.data[37].z
      value: 3.3316922
      objectReference: {fileID: 0}
    - target: {fileID: 3240690392320441848, guid: 7ce6c18a915b05049b7370f4d0594f81,
        type: 3}
      propertyPath: m_Positions.Array.data[38].z
      value: 3.2984228
      objectReference: {fileID: 0}
    - target: {fileID: 3240690392320441848, guid: 7ce6c18a915b05049b7370f4d0594f81,
        type: 3}
      propertyPath: m_Positions.Array.data[39].z
      value: 3.268914
      objectReference: {fileID: 0}
    - target: {fileID: 3240690392320441848, guid: 7ce6c18a915b05049b7370f4d0594f81,
        type: 3}
      propertyPath: m_Positions.Array.data[40].z
      value: 3.242026
      objectReference: {fileID: 0}
    - target: {fileID: 3240690392320441848, guid: 7ce6c18a915b05049b7370f4d0594f81,
        type: 3}
      propertyPath: m_Positions.Array.data[41].z
      value: 3.21662
      objectReference: {fileID: 0}
    - target: {fileID: 3240690392320441848, guid: 7ce6c18a915b05049b7370f4d0594f81,
        type: 3}
      propertyPath: m_Positions.Array.data[42].z
      value: 3.1915562
      objectReference: {fileID: 0}
    - target: {fileID: 3240690392320441848, guid: 7ce6c18a915b05049b7370f4d0594f81,
        type: 3}
      propertyPath: m_Positions.Array.data[43].z
      value: 3.1656957
      objectReference: {fileID: 0}
    - target: {fileID: 3240690392320441848, guid: 7ce6c18a915b05049b7370f4d0594f81,
        type: 3}
      propertyPath: m_Positions.Array.data[44].z
      value: 3.1378987
      objectReference: {fileID: 0}
    - target: {fileID: 3240690392320441848, guid: 7ce6c18a915b05049b7370f4d0594f81,
        type: 3}
      propertyPath: m_Positions.Array.data[45].z
      value: 3.107026
      objectReference: {fileID: 0}
    - target: {fileID: 3240690392320441848, guid: 7ce6c18a915b05049b7370f4d0594f81,
        type: 3}
      propertyPath: m_Positions.Array.data[46].z
      value: 3.0719388
      objectReference: {fileID: 0}
    - target: {fileID: 3240690392320441848, guid: 7ce6c18a915b05049b7370f4d0594f81,
        type: 3}
      propertyPath: m_Positions.Array.data[47].z
      value: 3.031497
      objectReference: {fileID: 0}
    - target: {fileID: 3240690392320441848, guid: 7ce6c18a915b05049b7370f4d0594f81,
        type: 3}
      propertyPath: m_Positions.Array.data[48].z
      value: 2.9845614
      objectReference: {fileID: 0}
    - target: {fileID: 3240690392320441848, guid: 7ce6c18a915b05049b7370f4d0594f81,
        type: 3}
      propertyPath: m_Positions.Array.data[49].z
      value: 2.9299932
      objectReference: {fileID: 0}
    - target: {fileID: 3240690392320441848, guid: 7ce6c18a915b05049b7370f4d0594f81,
        type: 3}
      propertyPath: m_Positions.Array.data[50].z
      value: 2.8666525
      objectReference: {fileID: 0}
    - target: {fileID: 3240690392320441848, guid: 7ce6c18a915b05049b7370f4d0594f81,
        type: 3}
      propertyPath: m_Positions.Array.data[51].z
      value: 2.7934
      objectReference: {fileID: 0}
    - target: {fileID: 3240690392320441848, guid: 7ce6c18a915b05049b7370f4d0594f81,
        type: 3}
      propertyPath: m_Positions.Array.data[52].z
      value: 2.7090967
      objectReference: {fileID: 0}
    - target: {fileID: 3240690392320441848, guid: 7ce6c18a915b05049b7370f4d0594f81,
        type: 3}
      propertyPath: m_Positions.Array.data[53].z
      value: 2.612603
      objectReference: {fileID: 0}
    - target: {fileID: 3240690392320441848, guid: 7ce6c18a915b05049b7370f4d0594f81,
        type: 3}
      propertyPath: m_Positions.Array.data[54].z
      value: 2.5027795
      objectReference: {fileID: 0}
    - target: {fileID: 3240690392320441848, guid: 7ce6c18a915b05049b7370f4d0594f81,
        type: 3}
      propertyPath: m_Positions.Array.data[55].z
      value: 2.378487
      objectReference: {fileID: 0}
    - target: {fileID: 3240690392320441848, guid: 7ce6c18a915b05049b7370f4d0594f81,
        type: 3}
      propertyPath: m_Positions.Array.data[56].z
      value: 2.2385864
      objectReference: {fileID: 0}
    - target: {fileID: 3240690392320441848, guid: 7ce6c18a915b05049b7370f4d0594f81,
        type: 3}
      propertyPath: m_Positions.Array.data[57].z
      value: 2.0819378
      objectReference: {fileID: 0}
    - target: {fileID: 3240690392320441848, guid: 7ce6c18a915b05049b7370f4d0594f81,
        type: 3}
      propertyPath: m_Positions.Array.data[58].z
      value: 1.9074023
      objectReference: {fileID: 0}
    - target: {fileID: 3240690392320441848, guid: 7ce6c18a915b05049b7370f4d0594f81,
        type: 3}
      propertyPath: m_Positions.Array.data[59].z
      value: 1.7138402
      objectReference: {fileID: 0}
    - target: {fileID: 3240690392320441848, guid: 7ce6c18a915b05049b7370f4d0594f81,
        type: 3}
      propertyPath: m_Positions.Array.data[60].z
      value: 1.5001125
      objectReference: {fileID: 0}
    - target: {fileID: 3240690392320441848, guid: 7ce6c18a915b05049b7370f4d0594f81,
        type: 3}
      propertyPath: m_Positions.Array.data[61].z
      value: 1.0492225
      objectReference: {fileID: 0}
    - target: {fileID: 3240690392320441848, guid: 7ce6c18a915b05049b7370f4d0594f81,
        type: 3}
      propertyPath: m_Positions.Array.data[62].z
      value: 0.6475113
      objectReference: {fileID: 0}
    - target: {fileID: 3240690392320441848, guid: 7ce6c18a915b05049b7370f4d0594f81,
        type: 3}
      propertyPath: m_Positions.Array.data[63].z
      value: 0.2919611
      objectReference: {fileID: 0}
    - target: {fileID: 3240690392320441848, guid: 7ce6c18a915b05049b7370f4d0594f81,
        type: 3}
      propertyPath: m_Positions.Array.data[64].z
      value: -0.020445906
      objectReference: {fileID: 0}
    - target: {fileID: 3240690392320441848, guid: 7ce6c18a915b05049b7370f4d0594f81,
        type: 3}
      propertyPath: m_Positions.Array.data[65].z
      value: -0.29272762
      objectReference: {fileID: 0}
    - target: {fileID: 3240690392320441848, guid: 7ce6c18a915b05049b7370f4d0594f81,
        type: 3}
      propertyPath: m_Positions.Array.data[66].z
      value: -0.5279019
      objectReference: {fileID: 0}
    - target: {fileID: 3240690392320441848, guid: 7ce6c18a915b05049b7370f4d0594f81,
        type: 3}
      propertyPath: m_Positions.Array.data[67].z
      value: -0.72898656
      objectReference: {fileID: 0}
    - target: {fileID: 3240690392320441848, guid: 7ce6c18a915b05049b7370f4d0594f81,
        type: 3}
      propertyPath: m_Positions.Array.data[68].z
      value: -0.8989996
      objectReference: {fileID: 0}
    - target: {fileID: 3240690392320441848, guid: 7ce6c18a915b05049b7370f4d0594f81,
        type: 3}
      propertyPath: m_Positions.Array.data[69].z
      value: -1.0409586
      objectReference: {fileID: 0}
    - target: {fileID: 3240690392320441848, guid: 7ce6c18a915b05049b7370f4d0594f81,
        type: 3}
      propertyPath: m_Positions.Array.data[70].z
      value: -1.1578817
      objectReference: {fileID: 0}
    - target: {fileID: 3240690392320441848, guid: 7ce6c18a915b05049b7370f4d0594f81,
        type: 3}
      propertyPath: m_Positions.Array.data[71].z
      value: -1.2527866
      objectReference: {fileID: 0}
    - target: {fileID: 3240690392320441848, guid: 7ce6c18a915b05049b7370f4d0594f81,
        type: 3}
      propertyPath: m_Positions.Array.data[72].z
      value: -1.3286912
      objectReference: {fileID: 0}
    - target: {fileID: 3240690392320441848, guid: 7ce6c18a915b05049b7370f4d0594f81,
        type: 3}
      propertyPath: m_Positions.Array.data[73].z
      value: -1.3886133
      objectReference: {fileID: 0}
    - target: {fileID: 3240690392320441848, guid: 7ce6c18a915b05049b7370f4d0594f81,
        type: 3}
      propertyPath: m_Positions.Array.data[74].z
      value: -1.435571
      objectReference: {fileID: 0}
    - target: {fileID: 3240690392320441848, guid: 7ce6c18a915b05049b7370f4d0594f81,
        type: 3}
      propertyPath: m_Positions.Array.data[75].z
      value: -1.4725817
      objectReference: {fileID: 0}
    - target: {fileID: 3240690392320441848, guid: 7ce6c18a915b05049b7370f4d0594f81,
        type: 3}
      propertyPath: m_Positions.Array.data[76].z
      value: -1.5026637
      objectReference: {fileID: 0}
    - target: {fileID: 3240690392320441848, guid: 7ce6c18a915b05049b7370f4d0594f81,
        type: 3}
      propertyPath: m_Positions.Array.data[77].z
      value: -1.5288346
      objectReference: {fileID: 0}
    - target: {fileID: 3240690392320441848, guid: 7ce6c18a915b05049b7370f4d0594f81,
        type: 3}
      propertyPath: m_Positions.Array.data[78].z
      value: -1.5541123
      objectReference: {fileID: 0}
    - target: {fileID: 3240690392320441848, guid: 7ce6c18a915b05049b7370f4d0594f81,
        type: 3}
      propertyPath: m_Positions.Array.data[79].z
      value: -1.5815148
      objectReference: {fileID: 0}
    - target: {fileID: 3240690392320441848, guid: 7ce6c18a915b05049b7370f4d0594f81,
        type: 3}
      propertyPath: m_Positions.Array.data[80].z
      value: -1.6140598
      objectReference: {fileID: 0}
    - target: {fileID: 3240690392320441848, guid: 7ce6c18a915b05049b7370f4d0594f81,
        type: 3}
      propertyPath: m_Positions.Array.data[81].z
      value: -1.6547652
      objectReference: {fileID: 0}
    - target: {fileID: 3240690392320441848, guid: 7ce6c18a915b05049b7370f4d0594f81,
        type: 3}
      propertyPath: m_Positions.Array.data[82].z
      value: -1.7066488
      objectReference: {fileID: 0}
    - target: {fileID: 3240690392320441848, guid: 7ce6c18a915b05049b7370f4d0594f81,
        type: 3}
      propertyPath: m_Positions.Array.data[83].z
      value: -1.7727286
      objectReference: {fileID: 0}
    - target: {fileID: 3240690392320441848, guid: 7ce6c18a915b05049b7370f4d0594f81,
        type: 3}
      propertyPath: m_Positions.Array.data[84].z
      value: -1.8560224
      objectReference: {fileID: 0}
    - target: {fileID: 3240690392320441848, guid: 7ce6c18a915b05049b7370f4d0594f81,
        type: 3}
      propertyPath: m_Positions.Array.data[85].z
      value: -1.9595479
      objectReference: {fileID: 0}
    - target: {fileID: 3240690392320441848, guid: 7ce6c18a915b05049b7370f4d0594f81,
        type: 3}
      propertyPath: m_Positions.Array.data[86].z
      value: -2.0863233
      objectReference: {fileID: 0}
    - target: {fileID: 3240690392320441848, guid: 7ce6c18a915b05049b7370f4d0594f81,
        type: 3}
      propertyPath: m_Positions.Array.data[87].z
      value: -2.239366
      objectReference: {fileID: 0}
    - target: {fileID: 3240690392320441848, guid: 7ce6c18a915b05049b7370f4d0594f81,
        type: 3}
      propertyPath: m_Positions.Array.data[88].z
      value: -2.421694
      objectReference: {fileID: 0}
    - target: {fileID: 3240690392320441848, guid: 7ce6c18a915b05049b7370f4d0594f81,
        type: 3}
      propertyPath: m_Positions.Array.data[89].z
      value: -2.6363256
      objectReference: {fileID: 0}
    - target: {fileID: 3240690392320441848, guid: 7ce6c18a915b05049b7370f4d0594f81,
        type: 3}
      propertyPath: m_Positions.Array.data[90].z
      value: -2.8862782
      objectReference: {fileID: 0}
    - target: {fileID: 3240690392320441848, guid: 7ce6c18a915b05049b7370f4d0594f81,
        type: 3}
      propertyPath: m_Positions.Array.data[91].z
      value: -3.0262794
      objectReference: {fileID: 0}
    - target: {fileID: 3240690392320441848, guid: 7ce6c18a915b05049b7370f4d0594f81,
        type: 3}
      propertyPath: m_Positions.Array.data[92].z
      value: -3.1707833
      objectReference: {fileID: 0}
    - target: {fileID: 3240690392320441848, guid: 7ce6c18a915b05049b7370f4d0594f81,
        type: 3}
      propertyPath: m_Positions.Array.data[93].z
      value: -3.3192778
      objectReference: {fileID: 0}
    - target: {fileID: 3240690392320441848, guid: 7ce6c18a915b05049b7370f4d0594f81,
        type: 3}
      propertyPath: m_Positions.Array.data[94].z
      value: -3.4712508
      objectReference: {fileID: 0}
    - target: {fileID: 3240690392320441848, guid: 7ce6c18a915b05049b7370f4d0594f81,
        type: 3}
      propertyPath: m_Positions.Array.data[95].z
      value: -3.62619
      objectReference: {fileID: 0}
    - target: {fileID: 3240690392320441848, guid: 7ce6c18a915b05049b7370f4d0594f81,
        type: 3}
      propertyPath: m_Positions.Array.data[96].z
      value: -3.7835832
      objectReference: {fileID: 0}
    - target: {fileID: 3240690392320441848, guid: 7ce6c18a915b05049b7370f4d0594f81,
        type: 3}
      propertyPath: m_Positions.Array.data[97].z
      value: -3.9429183
      objectReference: {fileID: 0}
    - target: {fileID: 3240690392320441848, guid: 7ce6c18a915b05049b7370f4d0594f81,
        type: 3}
      propertyPath: m_Positions.Array.data[98].z
      value: -4.1036835
      objectReference: {fileID: 0}
    - target: {fileID: 3240690392320441848, guid: 7ce6c18a915b05049b7370f4d0594f81,
        type: 3}
      propertyPath: m_Positions.Array.data[99].z
      value: -4.265366
      objectReference: {fileID: 0}
    - target: {fileID: 3240690392320441848, guid: 7ce6c18a915b05049b7370f4d0594f81,
        type: 3}
      propertyPath: m_Positions.Array.data[100].z
      value: -4.427454
      objectReference: {fileID: 0}
    - target: {fileID: 3240690392320441848, guid: 7ce6c18a915b05049b7370f4d0594f81,
        type: 3}
      propertyPath: m_Positions.Array.data[101].z
      value: -4.589435
      objectReference: {fileID: 0}
    - target: {fileID: 3240690392320441848, guid: 7ce6c18a915b05049b7370f4d0594f81,
        type: 3}
      propertyPath: m_Positions.Array.data[102].z
      value: -4.7507977
      objectReference: {fileID: 0}
    - target: {fileID: 3240690392320441848, guid: 7ce6c18a915b05049b7370f4d0594f81,
        type: 3}
      propertyPath: m_Positions.Array.data[103].z
      value: -4.9110293
      objectReference: {fileID: 0}
    - target: {fileID: 3240690392320441848, guid: 7ce6c18a915b05049b7370f4d0594f81,
        type: 3}
      propertyPath: m_Positions.Array.data[104].z
      value: -5.0696173
      objectReference: {fileID: 0}
    - target: {fileID: 3240690392320441848, guid: 7ce6c18a915b05049b7370f4d0594f81,
        type: 3}
      propertyPath: m_Positions.Array.data[105].z
      value: -5.2260504
      objectReference: {fileID: 0}
    - target: {fileID: 3240690392320441848, guid: 7ce6c18a915b05049b7370f4d0594f81,
        type: 3}
      propertyPath: m_Positions.Array.data[106].z
      value: -5.379816
      objectReference: {fileID: 0}
    - target: {fileID: 3240690392320441848, guid: 7ce6c18a915b05049b7370f4d0594f81,
        type: 3}
      propertyPath: m_Positions.Array.data[107].z
      value: -5.5304017
      objectReference: {fileID: 0}
    - target: {fileID: 3240690392320441848, guid: 7ce6c18a915b05049b7370f4d0594f81,
        type: 3}
      propertyPath: m_Positions.Array.data[108].z
      value: -5.6772957
      objectReference: {fileID: 0}
    - target: {fileID: 3240690392320441848, guid: 7ce6c18a915b05049b7370f4d0594f81,
        type: 3}
      propertyPath: m_Positions.Array.data[109].z
      value: -5.819986
      objectReference: {fileID: 0}
    - target: {fileID: 3240690392320441848, guid: 7ce6c18a915b05049b7370f4d0594f81,
        type: 3}
      propertyPath: m_Positions.Array.data[110].z
      value: -5.9579597
      objectReference: {fileID: 0}
    - target: {fileID: 3240690392320441848, guid: 7ce6c18a915b05049b7370f4d0594f81,
        type: 3}
      propertyPath: m_Positions.Array.data[111].z
      value: -6.0907054
      objectReference: {fileID: 0}
    - target: {fileID: 3240690392320441848, guid: 7ce6c18a915b05049b7370f4d0594f81,
        type: 3}
      propertyPath: m_Positions.Array.data[112].z
      value: -6.2177105
      objectReference: {fileID: 0}
    - target: {fileID: 3240690392320441848, guid: 7ce6c18a915b05049b7370f4d0594f81,
        type: 3}
      propertyPath: m_Positions.Array.data[113].z
      value: -6.338463
      objectReference: {fileID: 0}
    - target: {fileID: 3240690392320441848, guid: 7ce6c18a915b05049b7370f4d0594f81,
        type: 3}
      propertyPath: m_Positions.Array.data[114].z
      value: -6.4524508
      objectReference: {fileID: 0}
    - target: {fileID: 3240690392320441848, guid: 7ce6c18a915b05049b7370f4d0594f81,
        type: 3}
      propertyPath: m_Positions.Array.data[115].z
      value: -6.5591617
      objectReference: {fileID: 0}
    - target: {fileID: 3240690392320441848, guid: 7ce6c18a915b05049b7370f4d0594f81,
        type: 3}
      propertyPath: m_Positions.Array.data[116].z
      value: -6.6580834
      objectReference: {fileID: 0}
    - target: {fileID: 3240690392320441848, guid: 7ce6c18a915b05049b7370f4d0594f81,
        type: 3}
      propertyPath: m_Positions.Array.data[117].z
      value: -6.7487044
      objectReference: {fileID: 0}
    - target: {fileID: 3240690392320441848, guid: 7ce6c18a915b05049b7370f4d0594f81,
        type: 3}
      propertyPath: m_Positions.Array.data[118].z
      value: -6.8305116
      objectReference: {fileID: 0}
    - target: {fileID: 3240690392320441848, guid: 7ce6c18a915b05049b7370f4d0594f81,
        type: 3}
      propertyPath: m_Positions.Array.data[119].z
      value: -6.902993
      objectReference: {fileID: 0}
    - target: {fileID: 3240690392320441848, guid: 7ce6c18a915b05049b7370f4d0594f81,
        type: 3}
      propertyPath: m_Positions.Array.data[120].z
      value: -6.965637
      objectReference: {fileID: 0}
    - target: {fileID: 3240690392320441848, guid: 7ce6c18a915b05049b7370f4d0594f81,
        type: 3}
      propertyPath: m_Positions.Array.data[121].z
      value: -7.0097194
      objectReference: {fileID: 0}
    - target: {fileID: 3240690392320441848, guid: 7ce6c18a915b05049b7370f4d0594f81,
        type: 3}
      propertyPath: m_Positions.Array.data[122].z
      value: -7.067588
      objectReference: {fileID: 0}
    - target: {fileID: 3240690392320441848, guid: 7ce6c18a915b05049b7370f4d0594f81,
        type: 3}
      propertyPath: m_Positions.Array.data[123].z
      value: -7.1378717
      objectReference: {fileID: 0}
    - target: {fileID: 3240690392320441848, guid: 7ce6c18a915b05049b7370f4d0594f81,
        type: 3}
      propertyPath: m_Positions.Array.data[124].z
      value: -7.2191997
      objectReference: {fileID: 0}
    - target: {fileID: 3240690392320441848, guid: 7ce6c18a915b05049b7370f4d0594f81,
        type: 3}
      propertyPath: m_Positions.Array.data[125].z
      value: -7.3101993
      objectReference: {fileID: 0}
    - target: {fileID: 3240690392320441848, guid: 7ce6c18a915b05049b7370f4d0594f81,
        type: 3}
      propertyPath: m_Positions.Array.data[126].z
      value: -7.4095
      objectReference: {fileID: 0}
    - target: {fileID: 3240690392320441848, guid: 7ce6c18a915b05049b7370f4d0594f81,
        type: 3}
      propertyPath: m_Positions.Array.data[127].z
      value: -7.5157294
      objectReference: {fileID: 0}
    - target: {fileID: 3240690392320441848, guid: 7ce6c18a915b05049b7370f4d0594f81,
        type: 3}
      propertyPath: m_Positions.Array.data[128].z
      value: -7.627517
      objectReference: {fileID: 0}
    - target: {fileID: 3240690392320441848, guid: 7ce6c18a915b05049b7370f4d0594f81,
        type: 3}
      propertyPath: m_Positions.Array.data[129].z
      value: -7.7434907
      objectReference: {fileID: 0}
    - target: {fileID: 3240690392320441848, guid: 7ce6c18a915b05049b7370f4d0594f81,
        type: 3}
      propertyPath: m_Positions.Array.data[130].z
      value: -7.8622794
      objectReference: {fileID: 0}
    - target: {fileID: 3240690392320441848, guid: 7ce6c18a915b05049b7370f4d0594f81,
        type: 3}
      propertyPath: m_Positions.Array.data[131].z
      value: -7.982511
      objectReference: {fileID: 0}
    - target: {fileID: 3240690392320441848, guid: 7ce6c18a915b05049b7370f4d0594f81,
        type: 3}
      propertyPath: m_Positions.Array.data[132].z
      value: -8.102815
      objectReference: {fileID: 0}
    - target: {fileID: 3240690392320441848, guid: 7ce6c18a915b05049b7370f4d0594f81,
        type: 3}
      propertyPath: m_Positions.Array.data[133].z
      value: -8.221818
      objectReference: {fileID: 0}
    - target: {fileID: 3240690392320441848, guid: 7ce6c18a915b05049b7370f4d0594f81,
        type: 3}
      propertyPath: m_Positions.Array.data[134].z
      value: -8.338151
      objectReference: {fileID: 0}
    - target: {fileID: 3240690392320441848, guid: 7ce6c18a915b05049b7370f4d0594f81,
        type: 3}
      propertyPath: m_Positions.Array.data[135].z
      value: -8.45044
      objectReference: {fileID: 0}
    - target: {fileID: 3240690392320441848, guid: 7ce6c18a915b05049b7370f4d0594f81,
        type: 3}
      propertyPath: m_Positions.Array.data[136].z
      value: -8.557316
      objectReference: {fileID: 0}
    - target: {fileID: 3240690392320441848, guid: 7ce6c18a915b05049b7370f4d0594f81,
        type: 3}
      propertyPath: m_Positions.Array.data[137].z
      value: -8.657406
      objectReference: {fileID: 0}
    - target: {fileID: 3240690392320441848, guid: 7ce6c18a915b05049b7370f4d0594f81,
        type: 3}
      propertyPath: m_Positions.Array.data[138].z
      value: -8.749338
      objectReference: {fileID: 0}
    - target: {fileID: 3240690392320441848, guid: 7ce6c18a915b05049b7370f4d0594f81,
        type: 3}
      propertyPath: m_Positions.Array.data[139].z
      value: -8.831742
      objectReference: {fileID: 0}
    - target: {fileID: 3240690392320441848, guid: 7ce6c18a915b05049b7370f4d0594f81,
        type: 3}
      propertyPath: m_Positions.Array.data[140].z
      value: -8.903246
      objectReference: {fileID: 0}
    - target: {fileID: 3240690392320441848, guid: 7ce6c18a915b05049b7370f4d0594f81,
        type: 3}
      propertyPath: m_Positions.Array.data[141].z
      value: -8.962478
      objectReference: {fileID: 0}
    - target: {fileID: 3240690392320441848, guid: 7ce6c18a915b05049b7370f4d0594f81,
        type: 3}
      propertyPath: m_Positions.Array.data[142].z
      value: -9.008066
      objectReference: {fileID: 0}
    - target: {fileID: 3240690392320441848, guid: 7ce6c18a915b05049b7370f4d0594f81,
        type: 3}
      propertyPath: m_Positions.Array.data[143].z
      value: -9.03864
      objectReference: {fileID: 0}
    - target: {fileID: 3240690392320441848, guid: 7ce6c18a915b05049b7370f4d0594f81,
        type: 3}
      propertyPath: m_Positions.Array.data[144].z
      value: -9.052828
      objectReference: {fileID: 0}
    - target: {fileID: 3240690392320441848, guid: 7ce6c18a915b05049b7370f4d0594f81,
        type: 3}
      propertyPath: m_Positions.Array.data[145].z
      value: -9.049258
      objectReference: {fileID: 0}
    - target: {fileID: 3240690392320441848, guid: 7ce6c18a915b05049b7370f4d0594f81,
        type: 3}
      propertyPath: m_Positions.Array.data[146].z
      value: -9.02656
      objectReference: {fileID: 0}
    - target: {fileID: 3240690392320441848, guid: 7ce6c18a915b05049b7370f4d0594f81,
        type: 3}
      propertyPath: m_Positions.Array.data[147].z
      value: -8.983359
      objectReference: {fileID: 0}
    - target: {fileID: 3240690392320441848, guid: 7ce6c18a915b05049b7370f4d0594f81,
        type: 3}
      propertyPath: m_Positions.Array.data[148].z
      value: -8.918288
      objectReference: {fileID: 0}
    - target: {fileID: 3240690392320441848, guid: 7ce6c18a915b05049b7370f4d0594f81,
        type: 3}
      propertyPath: m_Positions.Array.data[149].z
      value: -8.829972
      objectReference: {fileID: 0}
    - target: {fileID: 3240690392320441848, guid: 7ce6c18a915b05049b7370f4d0594f81,
        type: 3}
      propertyPath: m_Positions.Array.data[150].z
      value: -8.717042
      objectReference: {fileID: 0}
    - target: {fileID: 3240690392320441849, guid: 7ce6c18a915b05049b7370f4d0594f81,
        type: 3}
      propertyPath: m_LocalPosition.x
      value: -7.8
      objectReference: {fileID: 0}
    - target: {fileID: 3240690392320441849, guid: 7ce6c18a915b05049b7370f4d0594f81,
        type: 3}
      propertyPath: m_LocalPosition.y
      value: 0
      objectReference: {fileID: 0}
    - target: {fileID: 3240690392320441849, guid: 7ce6c18a915b05049b7370f4d0594f81,
        type: 3}
      propertyPath: m_LocalPosition.z
      value: 6
      objectReference: {fileID: 0}
    - target: {fileID: 3240690392320441849, guid: 7ce6c18a915b05049b7370f4d0594f81,
        type: 3}
      propertyPath: m_LocalRotation.x
      value: -0
      objectReference: {fileID: 0}
    - target: {fileID: 3240690392320441849, guid: 7ce6c18a915b05049b7370f4d0594f81,
        type: 3}
      propertyPath: m_LocalRotation.y
      value: -0
      objectReference: {fileID: 0}
    - target: {fileID: 3240690392320441849, guid: 7ce6c18a915b05049b7370f4d0594f81,
        type: 3}
      propertyPath: m_LocalRotation.z
      value: -0
      objectReference: {fileID: 0}
    - target: {fileID: 3240690392320441849, guid: 7ce6c18a915b05049b7370f4d0594f81,
        type: 3}
      propertyPath: m_LocalRotation.w
      value: 1
      objectReference: {fileID: 0}
    - target: {fileID: 3240690392320441849, guid: 7ce6c18a915b05049b7370f4d0594f81,
        type: 3}
      propertyPath: m_RootOrder
      value: 0
      objectReference: {fileID: 0}
    - target: {fileID: 3240690392320441849, guid: 7ce6c18a915b05049b7370f4d0594f81,
        type: 3}
      propertyPath: m_LocalEulerAnglesHint.x
      value: 0
      objectReference: {fileID: 0}
    - target: {fileID: 3240690392320441849, guid: 7ce6c18a915b05049b7370f4d0594f81,
        type: 3}
      propertyPath: m_LocalEulerAnglesHint.y
      value: 0
      objectReference: {fileID: 0}
    - target: {fileID: 3240690392320441849, guid: 7ce6c18a915b05049b7370f4d0594f81,
        type: 3}
      propertyPath: m_LocalEulerAnglesHint.z
      value: 0
      objectReference: {fileID: 0}
    - target: {fileID: 3240690392320441853, guid: 7ce6c18a915b05049b7370f4d0594f81,
        type: 3}
      propertyPath: txt
      value: 
      objectReference: {fileID: 0}
    m_RemovedComponents: []
  m_SourcePrefab: {fileID: 100100000, guid: 7ce6c18a915b05049b7370f4d0594f81, type: 3}
--- !u!4 &2216731860188899884 stripped
Transform:
  m_CorrespondingSourceObject: {fileID: 3240690392320441849, guid: 7ce6c18a915b05049b7370f4d0594f81,
    type: 3}
  m_PrefabInstance: {fileID: 3619301304228009941}
  m_PrefabAsset: {fileID: 0}
