{"levelTable":
    [
        {"n":"1","exp":"10"},
        {"n":"2","exp":"20"},
        {"n":"3","exp":"30"},
        {"n":"4","exp":"40"},
        {"n":"5","exp":"50"},
        {"n":"6","exp":"60"},
        {"n":"7","exp":"70"},
        {"n":"8","exp":"80"},
        {"n":"9","exp":"90"},
        {"n":"10","exp":"100"},
        {"n":"11","exp":"110"},
        {"n":"12","exp":"120"},
        {"n":"13","exp":"130"}

    ]
}